代码		     名称		
SZ002153	石基信息	
SZ002210	飞马国际	
SZ300014	亿纬锂能	
SH600198	大唐电信	
SZ000727	华东科技	
SH600584	长电科技	
SZ000851	高鸿股份	
SH600171	上海贝岭	
SZ000701	厦门信达	
SH600271	航天信息	
SZ000682	东方电子	
SZ002017	东信和平	
SZ002383	合众思壮	
SZ002183	怡 亚 通	
SH600800	ST磁卡		
SZ000997	新 大 陆	
SZ002376	新北洋		
SH600601	方正科技	
SZ002104	恒宝股份	
SZ002161	远 望 谷	
SZ002151	北斗星通	
SZ002308	威创股份	
SH600100	同方股份	

