代码		     名称		
SH600125	铁龙物流	
SZ000544	中原环保	
SZ300055	万邦达		
SH600386	北巴传媒	
SZ000826	桑德环境	
SZ000421	南京中北	
SH600874	创业环保	
SH600167	联美控股	
SH600215	长春经开	
SZ000685	中山公用	
SH600650	锦江投资	
SH600064	南京高科	
SH601006	大秦铁路	
SH600387	海越股份	
SH601333	广深铁路	
SH600611	大众交通	
SH600834	申通地铁	
SH600741	华域汽车	
SH600158	中体产业	

