代码		     名称		
SZ002041	登海种业	
SH600540	新赛股份	
SZ000713	丰乐种业	
SH600598	北大荒		
SH600093	禾嘉股份	
SH600371	万向德农	
SH600108	亚盛集团	
SH600506	*ST香梨		
SH600251	冠农股份	
SH600359	新农开发	
SH600180	*ST九发		
SZ000998	隆平高科	
SH600354	敦煌种业	
SZ002200	绿 大 地	
SZ000972	新 中 基	
SH600313	*ST中农		

