代码		     名称		
SH600810	神马股份	
SZ002080	中材科技	
SZ002206	海 利 得	
SH600699	*ST得亨		
SZ000936	华 西 村	
SZ000584	友利控股	
SZ000420	吉林化纤	
SZ002064	华峰氨纶	
SZ002172	澳洋科技	
SH600871	S仪化		
SH600667	太极实业	
SH600063	皖维高新	
SZ000687	保定天鹅	
SZ000677	山东海龙	
SZ000976	*ST春晖		
SZ000782	美达股份	
SZ000949	新乡化纤	
SZ000615	湖北金环	
SZ002254	烟台氨纶	
SZ002343	禾欣股份	
SH600889	南京化纤	
SH600061	中纺投资	
SZ000703	*ST光华		
SH600617	*ST联华		

