代码		     名称		
SH600750	江中药业	
SZ002223	鱼跃医疗	
SH600079	人福医药	
SH600572	康恩贝		
SZ300006	莱美药业	
SH600253	天方药业	
SH600664	哈药股份	
SH600055	万东医疗	
SH600329	中新药业	
SZ000028	一致药业	
SH601607	上海医药	
SH600518	康美药业	
SH600332	广州药业	
SH600085	同仁堂		
SH600479	千金药业	
SH600062	双鹤药业	
SH600351	亚宝药业	
SZ002118	紫鑫药业	
SH600196	复星医药	
SZ000756	新华制药	
SH600511	国药股份	
SZ000522	白云山Ａ	
SH600812	华北制药	
SH600297	美罗药业	
SZ002107	沃华医药	
SH600557	康缘药业	
SH600222	太龙药业	
SH600829	三精制药	
SZ000919	金陵药业	
SZ000423	东阿阿胶	
SZ000078	海王生物	
SZ000788	西南合成	
SZ000952	广济药业	
SZ002099	海翔药业	
SH600161	天坛生物	
SH600535	天士力		
SH600285	羚锐制药	
SZ000766	通化金马	
SZ002275	桂林三金	
SH600666	西南药业	
SZ000623	吉林敖东	
SZ000538	云南白药	
SZ000597	东北制药	
SZ002004	华邦制药	
SH600129	太极集团	
SH600380	健康元		
SZ000999	华润三九	
SH600216	XD浙江医	
SH600422	昆明制药	
SH600267	海正药业	
SH600993	马应龙		
SH600252	中恒集团	
SH600713	南京医药	
SH600276	恒瑞医药	
SZ002020	京新药业	
SH600789	鲁抗医药	

