代码		     名称		
SZ000755	山西三维	
SH600351	亚宝药业	
SH600281	太化股份	
SH600234	*ST天龙		
SZ000737	南风化工	
SZ002360	同德化工	
SZ000795	太原刚玉	
SH600495	晋西车轴	
SH600780	通宝能源	
SH600169	太原重工	
SH600539	狮头股份	
SZ000767	漳泽电力	
SZ000968	煤 气 化	
SH600809	山西汾酒	
SZ000673	*ST大水		
SZ000723	美锦能源	
SH601006	大秦铁路	
SH601699	潞安环能	
SH600740	*ST山焦		
SH601001	大同煤业	
SH600408	安泰集团	
SH600392	太工天成	
SZ000825	太钢不锈	
SZ000831	*ST关铝		
SH600546	山煤国际	
SH600123	兰花科创	
SH600348	国阳新能	
SZ000983	西山煤电	

