代码		     名称		
SZ000669	领先科技	
SZ000545	吉林制药	
SZ000591	桐 君 阁	
SZ000518	*ST生物		
SZ000028	一致药业	
SZ000566	海南海药	
SZ000650	仁和药业	
SZ000513	丽珠集团	
SZ000153	丰原药业	
SZ000705	浙江震元	
SZ000607	华立药业	
SZ000661	长春高新	
SZ000004	*ST国农		
SZ000411	英特集团	
SZ000739	普洛股份	
SZ000756	新华制药	
SZ000522	白云山Ａ	
SZ000606	青海明胶	
SZ000423	东阿阿胶	
SZ000078	海王生物	
SZ000788	西南合成	
SZ000790	华神集团	
SZ000766	通化金马	
SZ000605	ST 四 环	
SZ000623	吉林敖东	
SZ000538	云南白药	
SZ000597	东北制药	
SZ000750	S*ST集琦	
SZ000590	紫光古汉	

