代码		     名称		
SZ002080	中材科技	
SZ000665	武汉塑料	
SZ000920	南方汇通	
SH600206	有研硅股	
SH600237	铜峰电子	
SZ002056	横店东磁	
SH600366	宁波韵升	
SZ002185	华天科技	
SH600330	天通股份	
SH600458	时代新材	
SH600596	新安股份	
SZ002091	江苏国泰	
SZ000970	中科三环	
SZ002156	通富微电	
SH600707	彩虹股份	
SZ000727	华东科技	
SZ000988	华工科技	
SZ000055	方大集团	
SH600584	长电科技	
SZ002130	沃尔核材	
SH600460	士兰微		
SH600111	包钢稀土	
SZ000897	津滨发展	
SZ000005	世纪星源	
SH600156	华升股份	
SH600110	中科英华	
SZ000969	安泰科技	
SH600885	*ST力阳		
SH600319	亚星化学	
SH600171	上海贝岭	
SZ000973	佛塑股份	
SH600281	太化股份	
SH600872	中炬高新	
SH600155	*ST宝硕		
SH600636	三爱富		
SH600516	方大炭素	
SZ000737	南风化工	
SH600558	大西洋		
SH600980	北矿磁材	
SH600260	凯乐科技	
SH600063	皖维高新	
SZ002066	瑞泰科技	
SZ002297	博云新材	
SZ002372	伟星新材	
SZ002106	莱宝高科	
SZ000795	太原刚玉	
SH600589	广东榕泰	
SH600299	*ST新材		
SZ000880	潍柴重机	
SH600525	长园集团	
SZ002254	烟台氨纶	
SH600884	杉杉股份	
SH600255	鑫科材料	
SH600074	中达股份	
SH600390	金瑞科技	
SH600176	中国玻纤	
SH600388	龙净环保	
SH600148	长春一东	
SH600165	宁夏恒力	
SZ000911	南宁糖业	
SZ002129	中环股份	
SZ002392	北京利尔	
SH600309	烟台万华	
SZ000925	众合机电	
SH600318	巢东股份	
SH600223	鲁商置业	
SH600459	贵研铂业	
SH600061	中纺投资	
SZ000962	东方钽业	
SH600096	云天化		
SZ000519	银河动力	
SZ000751	*ST锌业		
SH600123	兰花科创	
SZ000786	北新建材	

