代码		     名称		
SH600197	伊力特		
SH600888	新疆众和	
SH600540	新赛股份	
SZ002092	中泰化学	
SH600337	美克股份	
SH600545	新疆城建	
SH600075	新疆天业	
SZ002202	金风科技	
SZ002205	国统股份	
SH600778	友好集团	
SZ002207	准油股份	
SH600509	天富热电	
SH600425	青松建化	
SH600090	啤酒花		
SH600737	中粮屯河	
SH600339	天利高新	
SZ002100	天康生物	
SH600419	ST天宏		
SZ000877	天山股份	
SH600721	ST百花		
SH600506	*ST香梨		
SZ002307	北新路桥	
SH600251	冠农股份	
SH600359	新农开发	
SH600089	特变电工	
SH600581	八一钢铁	
SH600084	*ST中葡		
SZ000562	宏源证券	
SH600256	广汇股份	
SZ000159	国际实业	
SZ000415	*ST汇通		
SZ000813	天山纺织	
SZ000972	新 中 基	
SZ002302	西部建设	

