代码		     名称		
SH600053	中江地产	
SH600750	江中药业	
SH600507	方大特钢	
SZ000829	天音控股	
SZ002157	正邦科技	
SH600561	江西长运	
SZ300066	三川股份	
SH600228	昌九生化	
SH600363	联创光电	
SZ000650	仁和药业	
SH600269	赣粤高速	
SZ000789	江西水泥	
SH600071	凤凰光学	
SH600316	洪都航空	
SZ002068	黑猫股份	
SZ002176	江特电机	
SH600590	泰豪科技	
SZ000899	赣能股份	
SZ002378	章源钨业	
SZ000404	华意压缩	
SH600397	安源股份	
SZ000990	诚志股份	
SH600461	洪城水业	
SH600373	*ST鑫新		
SH600782	新钢股份	
SZ000550	江铃汽车	
SH600362	江西铜业	

