代码		     名称		
SZ300021	大禹节水	
SZ002185	华天科技	
SZ000598	*ST清洗		
SH600543	莫高股份	
SH600738	兰州民百	
SH600108	亚盛集团	
SZ000995	*ST皇台		
SZ000929	兰州黄河	
SZ000779	三毛派神	
SH600516	方大炭素	
SH600192	长城电工	
SZ000791	西北化工	
SZ002219	独 一 味	
SH600354	敦煌种业	
SZ002145	*ST钛白		
SH600311	荣华实业	
SZ000552	靖远煤电	
SH600720	祁连山		
SH600307	酒钢宏兴	

