代码		     名称		
SZ000811	烟台冰轮	
SZ000544	中原环保	
SZ002092	中泰化学	
SH600366	宁波韵升	
SZ002380	科远股份	
SZ002249	大洋电机	
SH600303	曙光股份	
SH600526	菲达环保	
SH600363	联创光电	
SH600133	东湖高新	
SZ002163	中航三鑫	
SH600855	航天长峰	
SZ002130	沃尔核材	
SZ002368	太极股份	
SH600212	江泉实业	
SZ002255	海陆重工	
SZ000551	创元科技	
SZ000939	凯迪电力	
SH600872	中炬高新	
SH600261	浙江阳光	
SH600155	*ST宝硕		
SH600566	洪城股份	
SH600792	ST马龙		
SZ300072	三聚环保	
SH600378	天科股份	
SZ002366	丹甫股份	
SH600586	金晶科技	
SZ002111	威海广泰	
SZ000903	云内动力	
SZ000820	*ST金城		
SH600388	龙净环保	
SZ000100	TCL 集团	
SZ000409	ST泰复		
SH600165	宁夏恒力	
SH600846	同济科技	
SZ000685	中山公用	
SH600309	烟台万华	
SZ000404	华意压缩	
SH600864	哈投股份	
SZ002274	华昌化工	
SZ002088	鲁阳股份	
SH600098	广州控股	
SZ000027	深圳能源	
SZ002233	塔牌集团	
SH600649	城投控股	
SH601766	中国南车	
SH600481	双良股份	
SZ300070	碧水源		
SH600268	国电南自	
SZ000619	海螺型材	
SZ000900	现代投资	
SZ000813	天山纺织	

