代码		     名称		
SH600433	冠豪高新	
SH600235	民丰特纸	
SZ002303	美盈森		
SZ002012	凯恩股份	
SH600419	ST天宏		
SH600069	银鸽投资	
SH600567	山鹰纸业	
SZ002117	东港股份	
SZ000815	美利纸业	
SZ002319	乐通股份	
SZ002235	安妮股份	
SZ000812	陕西金叶	
SH600103	青山纸业	
SH600963	岳阳纸业	
SZ002067	景兴纸业	
SZ002229	鸿博股份	
SZ002191	劲嘉股份	
SH600793	ST宜纸		
SH600308	华泰股份	
SH600356	恒丰纸业	
SZ000820	*ST金城		
SZ002078	太阳纸业	
SZ300057	万顺股份	
SZ000488	晨鸣纸业	
SH600163	福建南纸	
SZ002103	广博股份	
SZ000030	*ST盛润A	
SH600966	博汇纸业	
SH600836	界龙实业	
SZ002228	合兴包装	
SH600462	*ST石岘		

