代码		     名称		
SH600452	涪陵电力	
SH600132	重庆啤酒	
SZ300006	莱美药业	
SZ000591	桐 君 阁	
SH600877	中国嘉陵	
SZ001696	宗申动力	
SH600565	迪马股份	
SZ000565	渝三峡Ａ	
SH600729	重庆百货	
SH600369	西南证券	
SZ000607	华立药业	
SH601158	重庆水务	
SH600106	重庆路桥	
SH600292	九龙电力	
SZ000514	渝 开 发	
SZ000788	西南合成	
SH600116	三峡水利	
SH600279	重庆港九	
SZ000950	建峰化工	
SH600666	西南药业	
SZ002004	华邦制药	
SZ000736	ST 重 实	
SH600129	太极集团	
SH600847	ST渝万里	
SZ000625	长安汽车	
SH601005	重庆钢铁	
SZ000892	ST星美		
SZ000656	ST 东 源	
SH600145	*ST四维		

