代码		     名称		
SZ002205	国统股份	
SZ300069	金利华电	
SZ002225	濮耐股份	
SH600562	*ST高陶		
SZ002201	九鼎新材	
SH600819	耀皮玻璃	
SH600716	凤凰股份	
SH600552	方兴科技	
SH600212	江泉实业	
SH600184	新华光		
SZ002162	斯 米 克	
SH600792	ST马龙		
SZ002102	冠福家用	
SH600516	方大炭素	
SH600529	山东药玻	
SZ002066	瑞泰科技	
SZ300064	豫金刚石	
SZ002297	博云新材	
SH600293	三峡新材	
SH600172	黄河旋风	
SZ000795	太原刚玉	
SH600629	棱光实业	
SH600586	金晶科技	
SZ000928	中钢吉炭	
SH600783	鲁信高新	
SZ000408	*ST玉源		
SZ000856	*ST 唐陶	
SZ002088	鲁阳股份	
SZ002271	东方雨虹	
SZ000861	海印股份	
SZ000012	南  玻Ａ	
SH600876	ST洛玻		
SH600660	福耀玻璃	
SZ000786	北新建材	
SZ000655	金岭矿业	
SH600691	*ST东碳		
SH600145	*ST四维		
SZ002302	西部建设	

