代码		     名称		
SH600452	涪陵电力	
SH600053	中江地产	
SZ000859	国风塑业	
SH600965	福成五丰	
SZ002036	宜科科技	
SZ002016	世荣兆业	
SH600206	有研硅股	
SH600844	丹化科技	
SZ002092	中泰化学	
SH600237	铜峰电子	
SH600975	新五丰		
SZ000050	深天马Ａ	
SH600302	标准股份	
SZ000545	吉林制药	
SZ002009	天奇股份	
SZ000595	西北轴承	
SZ002207	准油股份	
SH600766	园城股份	
SH601002	晋亿实业	
SH600090	啤酒花		
SH600769	*ST祥龙		
SH600609	*ST金杯		
SZ000032	深桑达Ａ	
SH600520	三佳科技	
SH600339	天利高新	
SH600596	新安股份	
SZ000413	宝  石Ａ	
SZ000517	荣安地产	
SZ002201	九鼎新材	
SH600802	福建水泥	
SH600228	昌九生化	
SZ000567	海德股份	
SH600819	耀皮玻璃	
SZ000727	华东科技	
SZ002175	广陆数测	
SH600565	迪马股份	
SZ000638	万方地产	
SZ002296	辉煌科技	
SZ000967	上风高科	
SH600419	ST天宏		
SZ000554	泰山石油	
SZ002197	证通电子	
SZ000755	山西三维	
SZ002222	福晶科技	
SZ000877	天山股份	
SZ002322	理工监测	
SZ002114	罗平锌电	
SZ000707	双环科技	
SH600764	中电广通	
SZ000821	京山轻机	
SZ000838	国兴地产	
SH600227	赤天化		
SZ002198	嘉应制药	
SZ002234	民和股份	
SH600136	道博股份	
SH600077	*ST百科		
SZ002246	北化股份	
SH600503	华丽家族	
SH600111	包钢稀土	
SZ002189	利达光电	
SZ000897	津滨发展	
SH600367	红星发展	
SH600110	中科英华	
SZ002162	斯 米 克	
SH600747	大连控股	
SZ000662	索 芙 特	
SZ002239	金 飞 达	
SZ000059	辽通化工	
SZ002052	同洲电子	
SZ000617	石油济柴	
SH600885	*ST力阳		
SZ000639	金德发展	
SZ000420	吉林化纤	
SH600171	上海贝岭	
SZ002339	积成电子	
SH600689	上海三毛	
SZ002064	华峰氨纶	
SZ000524	东方宾馆	
SZ002018	华星化工	
SH600281	太化股份	
SZ002227	奥 特 迅	
SH600095	哈高科		
SZ000532	力合股份	
SH600692	亚通股份	
SH600695	大江股份	
SZ002120	新海股份	
SZ000594	国恒铁路	
SZ000779	三毛派神	
SH600103	青山纸业	
SZ000908	*ST天一		
SZ000695	滨海能源	
SH600516	方大炭素	
SZ002076	雪 莱 特	
SZ000737	南风化工	
SH600797	浙大网新	
SH600812	华北制药	
SH600848	自仪股份	
SH600980	北矿磁材	
SZ002218	拓日新能	
SZ002183	怡 亚 通	
SZ000631	顺发恒业	
SZ000833	贵糖股份	
SH600615	丰华股份	
SH600193	创兴置业	
SH600265	景谷林业	
SH600297	美罗药业	
SZ002106	莱宝高科	
SZ002084	海鸥卫浴	
SH600083	ST博信		
SZ000033	新都酒店	
SH600962	国投中鲁	
SH600674	川投能源	
SZ002196	方正电机	
SH600203	福日电子	
SZ002040	南 京 港	
SH600246	万通地产	
SH600355	*ST精伦		
SH600213	亚星客车	
SZ002176	江特电机	
SZ000058	深 赛 格	
SZ002027	七喜控股	
SZ000905	厦门港务	
SZ000791	西北化工	
SH600793	ST宜纸		
SZ000977	浪潮信息	
SZ002143	高金食品	
SZ000836	鑫茂科技	
SZ002278	神开股份	
SZ000952	广济药业	
SZ002254	烟台氨纶	
SH600775	南京熊猫	
SH600389	江山股份	
SZ000928	中钢吉炭	
SH600620	天宸股份	
SH600074	中达股份	
SH600390	金瑞科技	
SZ000820	*ST金城		
SH600335	鼎盛天工	
SH600694	大商股份	
SH600176	中国玻纤	
SZ000676	*ST思达		
SH600803	威远生化	
SZ000416	民生投资	
SZ002077	大港股份	
SZ002195	海隆软件	
SH600798	宁波海运	
SZ000835	四川圣达	
SH600783	鲁信高新	
SZ000502	绿景地产	
SH600618	氯碱化工	
SZ002269	美邦服饰	
SH600229	青岛碱业	
SH600455	*ST博通		
SH600726	华电能源	
SH600449	赛马实业	
SH600163	福建南纸	
SZ000529	广弘控股	
SH600814	杭州解百	
SH600751	SST天海		
SZ000822	山东海化	
SZ000408	*ST玉源		
SH600391	成发科技	
SZ002181	粤 传 媒	
SZ002129	中环股份	
SH600301	*ST南化		
SZ002170	芭田股份	
SZ000932	华菱钢铁	
SZ002260	伊 立 浦	
SZ000809	中汇医药	
SZ000958	*ST东热		
SH600230	沧州大化	
SZ000553	沙隆达Ａ	
SH600365	通葡股份	
SH600275	ST昌鱼		
SZ000801	四川湖山	
SH600320	振华重工	
SZ000525	红 太 阳	
SZ002240	威华股份	
SZ000889	渤海物流	
SZ002174	梅 花 伞	
SZ002039	黔源电力	
SZ002274	华昌化工	
SH600671	天目药业	
SZ002033	丽江旅游	
SH600896	中海海盛	
SZ000520	长航凤凰	
SZ000912	泸 天 化	
SH600087	长航油运	
SZ000509	S*ST华塑	
SH600860	*ST北人		
SZ002180	万 力 达	
SH600740	*ST山焦		
SH600096	云天化		
SH600373	*ST鑫新		
SZ000629	*ST钒钛		
SH600634	*ST海鸟		
SH600782	新钢股份	
SH600408	安泰集团	
SH601919	中国远洋	
SH600270	外运发展	
SH600209	*ST罗顿		
SH600392	太工天成	
SZ000703	*ST光华		
SZ002059	世博股份	
SH600158	中体产业	
SH600187	ST国中		
SZ000898	鞍钢股份	
SH601872	招商轮船	
SH600058	五矿发展	
SH601866	中海集运	
SH600010	包钢股份	
SH600026	中海发展	
SH600876	ST洛玻		
SH600179	*ST黑化		
SH600005	武钢股份	
SZ002237	恒邦股份	
SH600456	宝钛股份	
SH601005	重庆钢铁	
SZ000892	ST星美		
SZ001896	*ST豫能		
SH600050	中国联通	
SZ000761	本钢板材	
SH600900	长江电力	
SH600757	*ST源发		
SH600645	ST中源		
SH601600	中国铝业	
SZ002072	*ST德棉		
SH600102	莱钢股份	
SZ000068	ST三星		
SZ002265	西仪股份	
SH600091	*ST明科		
SH600145	*ST四维		
SZ000972	新 中 基	
SZ000953	*ST河化		
SZ000037	深南电Ａ	
SZ000762	西藏矿业	
SZ000590	紫光古汉	
SZ000922	*ST阿继		
SH600706	ST长信		
SH600633	*ST白猫		
SZ002302	西部建设	
SH600485	中创信测	
SH600273	华芳纺织	
SH600490	*ST合臣		

